{"page":1,"total_results":115,"total_pages":6,"results":[{"vote_count":6646,"id":11,"video":false,"vote_average":8.1,"title":"Star Wars","popularity":177.951173,"poster_path":"\/btTdmkgIvOi0FFip1sPuZI2oQG6.jpg","original_language":"en","original_title":"Star Wars","genre_ids":[12,28,878],"backdrop_path":"\/4iJfYYoQzZcONB9hNzg0J0wWyPH.jpg","adult":false,"overview":"Princess Leia is captured and held hostage by the evil Imperial forces in their effort to take over the galactic Empire. Venturesome Luke Skywalker and dashing captain Han Solo team together with the loveable robot duo R2-D2 and C-3PO to rescue the beautiful princess and restore peace and justice in the Empire.","release_date":"1977-10-26"},{"vote_count":7837,"id":140607,"video":false,"vote_average":7.5,"title":"Star Wars: The Force Awakens","popularity":194.750306,"poster_path":"\/weUSwMdQIa3NaXVzwUoIIcAi85d.jpg","original_language":"en","original_title":"Star Wars: The Force Awakens","genre_ids":[28,12,878,14],"backdrop_path":"\/c2Ax8Rox5g6CneChwy1gmu4UbSb.jpg","adult":false,"overview":"Thirty years after defeating the Galactic Empire, Han Solo and his allies face a new threat from the evil Kylo Ren and his army of Stormtroopers.","release_date":"2015-12-17"},{"vote_count":4956,"id":330459,"video":false,"vote_average":7.4,"title":"Rogue One: A Star Wars Story","popularity":161.913733,"poster_path":"\/qjiskwlV1qQzRCjpV0cL9pEMF9a.jpg","original_language":"en","original_title":"Rogue One: A Star Wars Story","genre_ids":[28,12,878],"backdrop_path":"\/tZjVVIYXACV4IIIhXeIM59ytqwS.jpg","adult":false,"overview":"A rogue band of resistance fighters unite for a mission to steal the Death Star plans and bring a new hope to the galaxy.","release_date":"2016-12-16"},{"vote_count":428,"id":12180,"video":false,"vote_average":5.8,"title":"Star Wars: The Clone Wars","popularity":19.698025,"poster_path":"\/xd6yhmtS6mEURZLwUDT5raEMbf.jpg","original_language":"en","original_title":"Star Wars: The Clone Wars","genre_ids":[53,16,28,878,12,14],"backdrop_path":"\/b3w2eXhAZvk79dMtIBTEBf8FXjc.jpg","adult":false,"overview":"Set between Episode II and III the Clone Wars is the first computer animated Star Wars film. Anakin and Obi Wan must find out who kidnapped Jabba the Hutts son and return him safely. The Seperatists will try anything to stop them and ruin any chance of a diplomatic agreement between the Hutt's and the Republic.","release_date":"2008-08-14"},{"vote_count":4437,"id":1893,"video":false,"vote_average":6.3,"title":"Star Wars: Episode I - The Phantom Menace","popularity":76.649371,"poster_path":"\/n8V09dDc02KsSN6Q4hC2BX6hN8X.jpg","original_language":"en","original_title":"Star Wars: Episode I - The Phantom Menace","genre_ids":[12,28,878],"backdrop_path":"\/wdp4unWJWY9hGKN1tM56HeSt6PZ.jpg","adult":false,"overview":"Anakin Skywalker, a young slave strong with the Force, is discovered on Tatooine. Meanwhile, the evil Sith have returned, enacting their plot for revenge against the Jedi.","release_date":"1999-07-16"},{"vote_count":4120,"id":1895,"video":false,"vote_average":7.1,"title":"Star Wars: Episode III - Revenge of the Sith","popularity":62.751798,"poster_path":"\/tgr5Pdy7ehZYBqBkN2K7Q02xgOb.jpg","original_language":"en","original_title":"Star Wars: Episode III - Revenge of the Sith","genre_ids":[878,12,28],"backdrop_path":"\/wUYTfFbfPiZC6Lcyt1nonr69ZmK.jpg","adult":false,"overview":"Years after the onset of the Clone Wars, the noble Jedi Knights lead a massive clone army into a galaxy-wide battle against the Separatists. When the sinister Sith unveil a thousand-year-old plot to rule the galaxy, the Republic crumbles and from its ashes rises the evil Galactic Empire. Jedi hero Anakin Skywalker is seduced by the dark side of the Force to become the Emperor's new apprentice – Darth Vader. The Jedi are decimated, as Obi-Wan Kenobi and Jedi Master Yoda are forced into hiding. The only hope for the galaxy are Anakin's own offspring – the twin children born in secrecy who will grow up to become heroes.","release_date":"2005-05-19"},{"vote_count":3993,"id":1894,"video":false,"vote_average":6.4,"title":"Star Wars: Episode II - Attack of the Clones","popularity":62.581885,"poster_path":"\/2vcNFtrZXNwIcBgH5e2xXCmVR8t.jpg","original_language":"en","original_title":"Star Wars: Episode II - Attack of the Clones","genre_ids":[12,28,878],"backdrop_path":"\/560F7BPaxRy8BsOfVU6cW4ivM46.jpg","adult":false,"overview":"Ten years after the invasion of Naboo, the galaxy is on the brink of civil war. Under the leadership of a renegade Jedi named Count Dooku, thousands of solar systems threaten to break away from the Galactic Republic. When an assassination attempt is made on Senator Padmé Amidala, the former Queen of Naboo, twenty-year-old Jedi apprentice Anakin Skywalker is assigned to protect her. In the course of his mission, Anakin discovers his love for Padmé as well as his own darker side. Soon, Anakin, Padmé, and Obi-Wan Kenobi are drawn into the heart of the Separatist movement and the beginning of the Clone Wars.","release_date":"2002-05-16"},{"vote_count":0,"id":181808,"video":false,"vote_average":0,"title":"Star Wars: The Last Jedi","popularity":15.453036,"poster_path":"\/1539H2E75rOC9HUA2kSOhDE4d2A.jpg","original_language":"en","original_title":"Star Wars: The Last Jedi","genre_ids":[28,12,14,878],"backdrop_path":"\/c4Dw37VZjBmObmJw9bmt8IDwMZH.jpg","adult":false,"overview":"Having taken her first steps into a larger world in \"Star Wars: The Force Awakens\", Rey continues her epic journey with Finn, Poe and Luke Skywalker in the next chapter of the Star Wars saga.","release_date":"2017-12-13"},{"vote_count":5883,"id":1891,"video":false,"vote_average":8.2,"title":"The Empire Strikes Back","popularity":110.924962,"poster_path":"\/6u1fYtxG5eqjhtCPDx04pJphQRW.jpg","original_language":"en","original_title":"The Empire Strikes Back","genre_ids":[12,28,878],"backdrop_path":"\/amYkOxCwHiVTFKendcIW0rSrRlU.jpg","adult":false,"overview":"The epic saga continues as Luke Skywalker, in hopes of defeating the evil Galactic Empire, learns the ways of the Jedi from aging master Yoda. But Darth Vader is more determined than ever to capture Luke. Meanwhile, rebel leader Princess Leia, cocky Han Solo, Chewbacca, and droids C-3PO and R2-D2 are thrown into various stages of capture, betrayal and despair.","release_date":"1980-05-21"},{"vote_count":57,"id":42979,"video":true,"vote_average":6.9,"title":"Robot Chicken: Star Wars","popularity":6.109954,"poster_path":"\/kWKspQ7YiQ82xXM1jVbIbqh5OyV.jpg","original_language":"en","original_title":"Robot Chicken: Star Wars","genre_ids":[16,35,878],"backdrop_path":"\/gZxY7VDOI48gjhnDJK1E6n9uHWk.jpg","adult":false,"overview":"Fans of Adult Swim's \"Robot Chicken\" and the Star Wars movie franchise won't want to miss this collection of 30 sketches. This hilarious compilation features an array of skits -- such as \"Darth Vader's Collect Call\" and \"Inside the AT-AT\" -- as well as the incredible voice talents of Hulk Hogan, Malcolm McDowell, Conan O'Brien and even the original Luke Skywalker himself, Mark Hamill.","release_date":"2007-07-17"},{"vote_count":4667,"id":1892,"video":false,"vote_average":7.9,"title":"Return of the Jedi","popularity":66.112699,"poster_path":"\/jx5p0aHlbPXqe3AH9G15NvmWaqQ.jpg","original_language":"en","original_title":"Return of the Jedi","genre_ids":[12,28,878],"backdrop_path":"\/koE7aMeR2ATivI18mCbscLsI0Nm.jpg","adult":false,"overview":"As Rebel leaders map their strategy for an all-out attack on the Emperor's newer, bigger Death Star. Han Solo remains frozen in the cavernous desert fortress of Jabba the Hutt, the most loathsome outlaw in the universe, who is also keeping Princess Leia as a slave girl. Now a master of the Force, Luke Skywalker rescues his friends, but he cannot become a true Jedi Knight until he wages his own crucial battle against Darth Vader, who has sworn to win Luke over to the dark side of the Force.","release_date":"1983-06-02"},{"vote_count":30,"id":51888,"video":false,"vote_average":7.1,"title":"Robot Chicken: Star Wars Episode III","popularity":10.48854,"poster_path":"\/gsKEyIOJzNgLdbGjTnFds8hI4rV.jpg","original_language":"en","original_title":"Robot Chicken: Star Wars Episode III","genre_ids":[35,878],"backdrop_path":"\/dwoqgOGljOL54RtZwulfmcz6cqD.jpg","adult":false,"overview":"Robot Chicken: Star Wars Episode III, directed by Chris McKay, combines the satirical sensibilities of Green and Matthew Senreich's Robot Chicken with characters of the Star Wars universe.","release_date":"2010-12-19"},{"vote_count":26,"id":181812,"video":false,"vote_average":0,"title":"Star Wars: Episode IX","popularity":4.373878,"poster_path":"\/yVYTFvIiKyr6vsrPw3o5C6t2eoL.jpg","original_language":"en","original_title":"Star Wars: Episode IX","genre_ids":[28,12,878],"backdrop_path":"\/i0NGCiMxL4NIVk2hhjtVgnNYZ3a.jpg","adult":false,"overview":"","release_date":"2019-12-20"},{"vote_count":80,"id":74849,"video":false,"vote_average":3.2,"title":"The Star Wars Holiday Special","popularity":6.159449,"poster_path":"\/sNxgvnswaahOA3mdkjcuYYpLi7i.jpg","original_language":"en","original_title":"The Star Wars Holiday Special","genre_ids":[12,35,10751,878,10770],"backdrop_path":"\/ie6u0zegHcVJEtHSpYn0KgEogrD.jpg","adult":false,"overview":"Luke Skywalker and Han Solo battle evil Imperial forces to help Chewbacca reach his imperiled family on the Wookiee planet - in time for Life Day, their most important day of the year!","release_date":"1978-12-01"},{"vote_count":21,"id":70608,"video":false,"vote_average":6.1,"title":"Lego Star Wars: The Padawan Menace","popularity":6.020296,"poster_path":"\/cIKQu7UlXAv94guz14Zij0Xm0tx.jpg","original_language":"en","original_title":"Lego Star Wars: The Padawan Menace","genre_ids":[16,10751,878],"backdrop_path":"\/hYJ1gD7bHtQsNKV8UVTsX9tD1EJ.jpg","adult":false,"overview":"A routine Jedi Academy field trip is turned into a rip-roaring comic adventure in LEGO Star Wars: The Padawan Menace. Tour guide Master Yoda leads a group of rambunctious Jedi Younglings through Senate chambers when he senses a disturbance in the Force. Summoned to help save the Republic, he discovers that one of the Younglings secretly boarded his ship...and has a taste for adventure! Meanwhile, C-3PO and R2-D2 are put in charge of the boisterous group and find themselves in over their heads. As the evil Sith prepare to wreak havoc, it's up to Yoda and the Droids to ensure that their young charges aren't torn to bricks!","release_date":"2011-07-22"},{"vote_count":27,"id":333355,"video":true,"vote_average":8,"title":"Star Wars: Clone Wars: Volume 1","popularity":3.634052,"poster_path":"\/2Bc0Ust8YlcJy6tSwiXTLu66xRa.jpg","original_language":"en","original_title":"Star Wars: Clone Wars (Volume 1)","genre_ids":[28,12,16,14,878],"backdrop_path":"\/jwAVVivirH1vCceiTakFdLqiL9o.jpg","adult":false,"overview":"The Saga continues with the Emmy-winning \"Star Wars: Clone Wars.\" This animated micro-series, directed by Genndy Tartakovsky, captures George Lucas' vision in a dynamic animated style that is a visual delight for all ages.  \"Star Wars: Clone Wars\" Volume 1 reveals the epic adventures that bridge the story arc between \"Star Wars: Episode II: Attack of the Clones\" and \"Star Wars: Episode III: Revenge of the Sith.\" Follow the valiant Jedi Knights and the Brave soldiers of the Republic's clone army as they battle against the droid forces of the Separatists, led by the evil Sith Lord, Count Dooku. Witness the battles that made galactic heroes out of Anakin Skywalker and Obi-Wan Kenobi, and along the way get a first look at the new menace from Episode III, General Grevious.  This is a must-have for any \"Star Wars\" collection.","release_date":"2005-03-21"},{"vote_count":22,"id":76180,"video":false,"vote_average":7.1,"title":"Empire of Dreams: The Story of the Star Wars Trilogy","popularity":6.898408,"poster_path":"\/nvYb5G5p94dERKNrALKFNSdHS4O.jpg","original_language":"en","original_title":"Empire of Dreams: The Story of the Star Wars Trilogy","genre_ids":[99],"backdrop_path":"\/klGSFk41qpDoHxOWW4r1hYdpFQn.jpg","adult":false,"overview":"Empire of Dreams: The Story of the Star Wars Trilogy is a 2004 documentary film directed by Kevin Burns and narrated by Robert Clotworthy. It documents the making of the original Star Wars trilogy.","release_date":"2004-09-12"},{"vote_count":16,"id":80829,"video":false,"vote_average":4.6,"title":"Star Wars: Revelations","popularity":2.648214,"poster_path":"\/7ocWi5hcPOzqyseLjOpeZR3TIfC.jpg","original_language":"en","original_title":"Star Wars: Revelations","genre_ids":[878,14],"backdrop_path":"\/cmImr7dgEKq1li9ux9hfdaaif5J.jpg","adult":false,"overview":"Seers once shaped the path of the Jedi Order. But their visions grew unreliable and the Jedi came to distrust those with the ability. Seers hid their visions or left the Order forever  In the wake of the temple's destruction, a power struggle has emerged between Darth Vader, the dark Lord of the Sith, and Zhanna, the Emperor's Hand. Each seeks to eliminate the last of the Jedi and gain The Emperor's favor.  Caught between them is one woman who cannot deny the truth of her visions as all race to possess an ancient 'Jedi secret…","release_date":"2005-04-16"},{"vote_count":29,"id":42982,"video":false,"vote_average":7.3,"title":"Robot Chicken: Star Wars Episode II","popularity":4.928492,"poster_path":"\/kTCaL5VFwQr11P8dZpb0yzk4oQy.jpg","original_language":"en","original_title":"Robot Chicken: Star Wars Episode II","genre_ids":[35,878],"backdrop_path":"\/qrdLxo18H7x3tr7ewpSz5A3VajH.jpg","adult":false,"overview":"Seth Green and Matthew Senreich serve up more hilarious Star Wars-inspired satire in this second compilation of sketches featuring the zany stop-motion animation of Adult Swim's \"Robot Chicken.\" Gary the stormtrooper deals with irascible boss Darth Vader on Take Your Daughter to Work Day, while Anakin babysits a certain up-and-coming Jedi. Carrie Fisher, Billy Dee Williams, Conan O'Brien and other stars provide voices.","release_date":"2008-11-16"},{"vote_count":14,"id":333365,"video":true,"vote_average":8,"title":"Star Wars: Clone Wars: Volume 2","popularity":2.967117,"poster_path":"\/nvxKvVQortycuwmfMdUIfDtYdL1.jpg","original_language":"en","original_title":"Star Wars: Clone Wars (Volume 2)","genre_ids":[14,16,28,12,878],"backdrop_path":"\/wLu8dXrEmCb0g6Ks83sk7x9cao9.jpg","adult":false,"overview":"The Emmy Award-winning animated series continues with \"Star Wars: Clone Wars\" Volume Two. Directed by Genndy Tartakovsky, this series captures George Lucas' vision in a dynamic animated style that is a visual delight for all ages. As seen on Cartoon Network, \"Star Wars: Clone Wars\" Volume Two concludes the epic adventures that bridge the story between \"Star Wars: Episode II: Attack of the Clones\" and \"Star Wars: Episode III: Revenge of the Sith.\" Witness firsthand the trials of Anakin Skywalker and the secret ceremony in which he becomes a Jedi Knight. Then, follow the Jedi was they attempt to repel a surprise attack by General Grevious on the galactic capital, Coruscant. \"Clone Wars\" Volume Two is filled with exciting galactic battles that lead directly to the beginning of \"Revenge of the Sith.\"","release_date":"2005-11-30"}]}
